Using file-backed matrices - FBM • switchgrassGWAS
…
There are three required arguments:

the first argument is expected to be the gwas results fbm

the second argument is expected to be the snp fbm used to generate the gwas results

the third argument is expected to be the metadata associated with the GWAS results.

We can also optionally specify a -log10p threshold with ‘thr’. By default, that threshold is 7. A good target is to set this above the noise floor for all of the GWAS you are comparing. For our toy example, we set this artificially low, to 2.

upset_df <- pvdiv_fbm_upset_df(effects = gwas, snp = snp_example, 
                               metadata = gwas_metadata, thr = 2)
upset_df
#> # A tibble: 343 × 6
#>    CHR         POS GWAS_CT CLMB_BIOMASS KBSM_BIOMASS PKLE_BIOMASS
#>    <chr>     <int>   <dbl>        <dbl>        <dbl>        <dbl>
#>  1 Chr01K  1147074       0            0            0            1
#>  2 Chr01K  4761900       0            0            0            1
#>  3 Chr01K  5505667       0            0            0            1
#>  4 Chr01K  7103018       0            0            0            1
#>  5 Chr01K  7475083       0            0            0            1
#>  6 Chr01K  8046966       0            0            1            1
#>  7 Chr01K 10626578       0            0            0            1
#>  8 Chr01K 16537641       0            1            0            1
#>  9 Chr01K 16575349       0            1            0            1
#> 10 Chr01K 18316176       0            1            0            0
#> # … with 333 more rows
…
